{
  "Serilog": {
    "Using":  ["Serilog.Sinks.Console"],
    "MinimumLevel": "Debug",
    "WriteTo": [
      {
        "Name": "Console",
        "Args": {
          "outputTemplate": "[{Timestamp:yyyy-MM-dd HH:mm:ss.fff} {Level:u3} {ThreadId:000} {Context}]{NewLine}{Message:lj}{NewLine}{Exception}{NewLine}"
        }
      },
      {
        "Name": "Debug",
        "Args": {
          "outputTemplate": "[{Timestamp:yyyy-MM-dd HH:mm:ss.fff} {Level:u3} {ThreadId:000} {Context}]{NewLine}{Message:lj}{NewLine}{Exception}{NewLine}"
        }
      },
      {
        "Name": "File",
        "Args": {
          "path": "ngi.log",
          "outputTemplate": "[{Timestamp:yyyy-MM-dd HH:mm:ss.fff} {Level:u3} {ThreadId:000} {Context}]{NewLine}{Message:lj}{NewLine}{Exception}{NewLine}"
        } }
    ],
    "Enrich": ["FromLogContext", "WithMachineName", "WithThreadId"],
    "Destructure": [
      { "Name": "ToMaximumDepth", "Args": { "maximumDestructuringDepth": 4 } },
      { "Name": "ToMaximumStringLength", "Args": { "maximumStringLength": 100 } },
      { "Name": "ToMaximumCollectionCount", "Args": { "maximumCollectionCount": 10 } }
    ],
    "Properties": {
        "Application": "SampleAppGoesHere"
    }
  }
}